
{
    "name": "BlackPanther",
    "tag": "GNSBLACK",
    "pilot": "Geovane",
    "mainFile": "src/Maquina/BlackPanther.java/file.cs",
    "supportFiles": [
        "src/path/to/optional_file_1.cs",
        "src/path/to/optional_file_2.cs",
        "src/path/to/optional_file_3.cs"]
}